digraph main
{
	node [style="filled" fillcolor="lightcyan" fontname="Helvetica"];
	"Initialize" -> "Short Wait";
	"Short Wait" -> "While forever";
	"While forever" -> "Decrement delayCounter";
	"Decrement delayCounter" -> "if !delayCounter";
	"if !delayCounter" -> "Set PWM7 based on analog" [label="!0"];
	"if !delayCounter" -> "toggle LEDs" [label="0"];
	"toggle LEDs" -> "Reset delayCounter";
	"Reset delayCounter" -> "Increment OC3 duty cycle";
	"Increment OC3 duty cycle" -> "if OC3 duty cycle > max";
	"if OC3 duty cycle > max" -> "Toggle LED 8"[label="yes"];
	"Toggle LED 8" -> "Reset OC3 duty cycle";
	"if OC3 duty cycle > max" -> "if pot low" [label="no"];
	"Reset OC3 duty cycle" -> "if pot low";
	"if pot low" -> "Remember low value" [label="yes"];
	"Remember low value" -> "if pot high";
	"if pot low" -> "if pot high" [label="no"];
	"if pot high" -> "Remember high value" [label="yes"];
	"Remember high value" -> "Set PWM7 based on analog";
	"if pot high" -> "Set PWM7 based on analog" [label="no"];
	"Set PWM7 based on analog" -> "While forever";
}